{
    "config": {
        "app": {
            "port": 4000,
            "name": "Prod app"
        },
        "logger": {
            "logsFolder": "./logs",
            "maxSize": "20m",
            "timestampInLogs":"YYYY-MMM-DD HH:mm:ss",
            "dateFormatInFileName": "YYYY-MM-DD",
            "handleExceptions": true,
            "zippedArchive": false
        }
    }
}